net/tncy/wm/services/ISPMgtService.class
net/tncy/wm/application/CORSRequestFilter.class
net/tncy/wm/services/AbstractRESTFulService.class
net/tncy/wm/services/LinkMgtService.class
net/tncy/wm/application/CORSResponseFilter.class
net/tncy/wm/application/ApplicationConfig.class
